<!--
Generated at https://tabatkins.github.io/railroad-diagrams/generator.html with:

Diagram(
      Sequence(NonTerminal('server-url'),
      Choice(0, 
                Sequence(NonTerminal('/'), NonTerminal('path-prefix'),Group('/*','ZFC Server Application')),
                Sequence(NonTerminal('/'), NonTerminal('logon-path-prefix'), Group(Terminal('/*'), "Authentication Helper"))
      ))
)
-->
<svg class="railroad-diagram" width="631" height="156" viewBox="0 0 631 156" xmlns="http://www.w3.org/2000/svg" xmlns:xlink="http://www.w3.org/1999/xlink">
<g transform="translate(.5 .5)">
<g>
<path d="M20 45v20m10 -20v20m-10 -10h20"></path>
</g>
<path d="M40 55h10"></path>
<g>
<path d="M50 55h0"></path>
<path d="M581 55h0"></path>
<g class="non-terminal ">
<path d="M50 55h0"></path>
<path d="M150 55h0"></path>
<rect x="50" y="44" width="100" height="22"></rect>
<text x="100" y="59">server-url</text>
</g>
<path d="M150 55h10"></path>
<g>
<path d="M160 55h0"></path>
<path d="M581 55h0"></path>
<path d="M160 55h20"></path>
<g>
<path d="M180 55h20.5"></path>
<path d="M540.5 55h20.5"></path>
<g class="non-terminal ">
<path d="M200.5 55h0"></path>
<path d="M228.5 55h0"></path>
<rect x="200.5" y="44" width="28" height="22"></rect>
<text x="214.5" y="59">/</text>
</g>
<path d="M228.5 55h10"></path>
<path d="M238.5 55h10"></path>
<g class="non-terminal ">
<path d="M248.5 55h0"></path>
<path d="M356.5 55h0"></path>
<rect x="248.5" y="44" width="108" height="22"></rect>
<text x="302.5" y="59">path-prefix</text>
</g>
<path d="M356.5 55h10"></path>
<path d="M366.5 55h10"></path>
<g>
<path d="M376.5 55h0"></path>
<path d="M540.5 55h0"></path>
<rect x="376.5" y="36" width="164" height="38" rx="10" ry="10" class="group-box"></rect>
<g class="terminal ">
<path d="M376.5 55h64"></path>
<path d="M476.5 55h64"></path>
<rect x="440.5" y="44" width="36" height="22" rx="10" ry="10"></rect>
<text x="458.5" y="59">/&#42;</text>
</g>
<g class="comment ">
<path d="M376.5 28h0"></path>
<path d="M540.5 28h0"></path>
<text x="458.5" y="33" class="comment">ZFC Server Application</text>
</g>
</g>
</g>
<path d="M561 55h20"></path>
<path d="M160 55a10 10 0 0 1 10 10v42a10 10 0 0 0 10 10"></path>
<g>
<path d="M180 117h0"></path>
<path d="M561 117h0"></path>
<g class="non-terminal ">
<path d="M180 117h0"></path>
<path d="M208 117h0"></path>
<rect x="180" y="106" width="28" height="22"></rect>
<text x="194" y="121">/</text>
</g>
<path d="M208 117h10"></path>
<path d="M218 117h10"></path>
<g class="non-terminal ">
<path d="M228 117h0"></path>
<path d="M384 117h0"></path>
<rect x="228" y="106" width="156" height="22"></rect>
<text x="306" y="121">logon-path-prefix</text>
</g>
<path d="M384 117h10"></path>
<path d="M394 117h10"></path>
<g>
<path d="M404 117h0"></path>
<path d="M561 117h0"></path>
<rect x="404" y="98" width="157" height="38" rx="10" ry="10" class="group-box"></rect>
<g class="terminal ">
<path d="M404 117h60.5"></path>
<path d="M500.5 117h60.5"></path>
<rect x="464.5" y="106" width="36" height="22" rx="10" ry="10"></rect>
<text x="482.5" y="121">/&#42;</text>
</g>
<g class="comment ">
<path d="M404 90h0"></path>
<path d="M561 90h0"></path>
<text x="482.5" y="95" class="comment">Authentication Helper</text>
</g>
</g>
</g>
<path d="M561 117a10 10 0 0 0 10 -10v-42a10 10 0 0 1 10 -10"></path>
</g>
</g>
<path d="M581 55h10"></path>
<path d="M 591 55 h 20 m -10 -10 v 20 m 10 -20 v 20"></path>
</g>
<style>
	svg {
		background-color: hsl(30,100%,100%);
	}
	path {
		stroke-width: 2;
		stroke: black;
		fill: rgba(0,0,0,0);
	}
	text {
		font: bold 12px monospace;
		text-anchor: middle;
		white-space: pre;
	}
	text.diagram-text {
		font-size: 12px;
	}
	text.diagram-arrow {
		font-size: 16px;
	}
	text.label {
		text-anchor: start;
	}
	text.comment {
		font: italic 12px monospace;
	}
	g.non-terminal text {
		/&#42;font-style: italic;&#42;/
	}
	rect {
		stroke-width: 2;
		stroke: black;
		fill: hsl(120,100%,100%);
	}
	rect.group-box {
		stroke: gray;
		stroke-dasharray: 10 5;
		fill: none;
	}
	path.diagram-text {
		stroke-width: 3;
		stroke: black;
		fill: white;
		cursor: help;
	}
	g.diagram-text:hover path.diagram-text {
		fill: #eee;
	}
	</style>
</svg>